<?xml version="1.0" encoding="UTF-8" standalone="no"?>
<!-- Created with Inkscape (http://www.inkscape.org/) -->

<svg
   xmlns:dc="http://purl.org/dc/elements/1.1/"
   xmlns:cc="http://creativecommons.org/ns#"
   xmlns:rdf="http://www.w3.org/1999/02/22-rdf-syntax-ns#"
   xmlns:svg="http://www.w3.org/2000/svg"
   xmlns="http://www.w3.org/2000/svg"
   xmlns:sodipodi="http://sodipodi.sourceforge.net/DTD/sodipodi-0.dtd"
   xmlns:inkscape="http://www.inkscape.org/namespaces/inkscape"
   width="16.550514mm"
   height="16.550514mm"
   viewBox="0 0 16.550514 16.550514"
   version="1.1"
   id="svg8"
   inkscape:version="0.92.2 2405546, 2018-03-11"
   sodipodi:docname="pause-r.svg">
  <defs
     id="defs2" />
  <sodipodi:namedview
     id="base"
     pagecolor="#ffffff"
     bordercolor="#666666"
     borderopacity="1.0"
     inkscape:pageopacity="0.0"
     inkscape:pageshadow="2"
     inkscape:zoom="7.9195959"
     inkscape:cx="39.698984"
     inkscape:cy="36.154099"
     inkscape:document-units="mm"
     inkscape:current-layer="layer3"
     showgrid="false"
     inkscape:showpageshadow="false"
     inkscape:window-width="1920"
     inkscape:window-height="1001"
     inkscape:window-x="1920"
     inkscape:window-y="25"
     inkscape:window-maximized="1"
     inkscape:snap-bbox="true"
     inkscape:bbox-nodes="true"
     inkscape:snap-page="true"
     inkscape:snap-center="true" />
  <metadata
     id="metadata5">
    <rdf:RDF>
      <cc:Work
         rdf:about="">
        <dc:format>image/svg+xml</dc:format>
        <dc:type
           rdf:resource="http://purl.org/dc/dcmitype/StillImage" />
        <dc:title></dc:title>
      </cc:Work>
    </rdf:RDF>
  </metadata>
  <g
     inkscape:label="Layer 1"
     inkscape:groupmode="layer"
     id="layer1"
     transform="translate(438.75447,-69.510296)">
    <rect
       style="fill:#505050;fill-opacity:1;stroke:#c8c8c8;stroke-width:0.26042026;stroke-opacity:1"
       id="rect4565"
       width="16.290098"
       height="16.290102"
       x="-438.62424"
       y="69.640503"
       rx="5"
       ry="5" />
  </g>
  <g
     inkscape:groupmode="layer"
     id="layer2"
     inkscape:label="stop"
     style="display:none">
    <rect
       transform="translate(438.75447,-69.510296)"
       style="fill:#c80000;fill-opacity:1;stroke:#c8c8c8;stroke-width:0.26458332;stroke-opacity:1"
       id="rect4573"
       width="8.3959055"
       height="8.3959055"
       x="-434.67715"
       y="73.587601" />
  </g>
  <g
     inkscape:groupmode="layer"
     id="layer3"
     inkscape:label="pause"
     style="display:inline">
    <rect
       style="fill:#ffc800;fill-opacity:1;stroke:#c8c8c8;stroke-width:0.16289563;stroke-opacity:1"
       id="rect4569"
       width="2.5528436"
       height="10.973018"
       x="-433.92899"
       y="72.299049"
       transform="translate(438.75447,-69.510296)" />
    <rect
       y="72.304588"
       x="-429.5878"
       height="10.973018"
       width="2.5528436"
       id="rect4571"
       style="fill:#ffc800;fill-opacity:1;stroke:#c8c8c8;stroke-width:0.16289563;stroke-opacity:1"
       transform="translate(438.75447,-69.510296)" />
  </g>
  <g
     inkscape:groupmode="layer"
     id="layer4"
     inkscape:label="run"
     style="display:none">
    <path
       transform="translate(438.75447,-69.510296)"
       style="fill:#008000;fill-opacity:1;stroke:#fffb00;stroke-width:0.17469655px;stroke-linecap:butt;stroke-linejoin:miter;stroke-opacity:1"
       d="m -432.73637,72.428279 v 10.71455 l 5.57266,-5.357274 z"
       id="path4563"
       inkscape:connector-curvature="0" />
  </g>
</svg>
